queryID,queryclass,var1,var2,expression,output
1,var_missing,bp_syst,NA,is.na(var1),systolic blood pressure is missing
2,var_too_low,ageyr,NA,as.numeric(var1) < 10,age is below 10
3,var_too_high,temperature,NA,as.numeric(var1) > 40,temperature is above 40
4,var_not_in_list,sex,NA,"!(var1 %in% c('M','F'))",sex not M or F
6,Date_var1_lower_than_date_var2,vis1_dt,scr_dt,as.Date(var1) < as.Date(var2),Visit1 date before screening date
